x=3352.635986
z=500
y= -3500 to 1900

12:17:00:00:90:06:ac:e2:63:84:5e:1a:36:d0:ae:8f:63:d8:f6:5a:5a:5a:6b:f0:00:
00010010000101110000000000000000100100000000011010101100111000100110001110000100010111100001101000110110110100001010111010001111011000111101100011110110010110100101101001011010011010111111000000000000
12:17:00:00:90:06:ac:e2:63:84:90:1a:36:d0:ae:8f:63:d8:f6:5a:5a:5a:6b:f0:00:
00010010000101110000000000000000100100000000011010101100111000100110001110000100100100000001101000110110110100001010111010001111011000111101100011110110010110100101101001011010011010111111000000000000
12:17:00:00:90:06:ac:e2:63:84:c2:1a:36:d0:ae:8f:63:d8:f6:5a:5a:5a:6b:f0:00:
00010010000101110000000000000000100100000000011010101100111000100110001110000100110000100001101000110110110100001010111010001111011000111101100011110110010110100101101001011010011010111111000000000000
12:17:00:00:90:06:ac:e2:63:84:f4:1a:36:d0:ae:8f:63:d8:f6:5a:5a:5a:6b:f0:00:
00010010000101110000000000000000100100000000011010101100111000100110001110000100111101000001101000110110110100001010111010001111011000111101100011110110010110100101101001011010011010111111000000000000
12:17:00:00:90:06:ac:e2:63:85:04:9a:36:d0:ae:8f:63:d8:f6:5a:5a:5a:6b:f0:00:
00010010000101110000000000000000100100000000011010101100111000100110001110000101000001001001101000110110110100001010111010001111011000111101100011110110010110100101101001011010011010111111000000000000
12:17:00:00:90:06:ac:e2:63:85:47:5a:36:d0:ae:8f:63:d8:f6:5a:5a:5a:6b:f0:00:
00010010000101110000000000000000100100000000011010101100111000100110001110000101010001110101101000110110110100001010111010001111011000111101100011110110010110100101101001011010011010111111000000000000
12:17:00:00:90:06:ac:e2:63:85:79:5a:36:d0:ae:8f:63:d8:f6:5a:5a:5a:6b:f0:00:
00010010000101110000000000000000100100000000011010101100111000100110001110000101011110010101101000110110110100001010111010001111011000111101100011110110010110100101101001011010011010111111000000000000
12:17:00:00:90:06:ac:e2:63:85:ab:5a:36:d0:ae:8f:63:d8:f6:5a:5a:5a:6b:f0:00:
00010010000101110000000000000000100100000000011010101100111000100110001110000101101010110101101000110110110100001010111010001111011000111101100011110110010110100101101001011010011010111111000000000000
12:17:00:00:90:06:ac:e2:63:85:dd:5a:36:d0:ae:8f:63:d8:f6:5a:5a:5a:6b:f0:00:
00010010000101110000000000000000100100000000011010101100111000100110001110000101110111010101101000110110110100001010111010001111011000111101100011110110010110100101101001011010011010111111000000000000
12:17:00:00:90:06:ac:e2:63:85:fe:9a:36:d0:ae:8f:63:d8:f6:5a:5a:5a:6b:f0:00:
00010010000101110000000000000000100100000000011010101100111000100110001110000101111111101001101000110110110100001010111010001111011000111101100011110110010110100101101001011010011010111111000000000000
12:17:00:00:90:06:ac:e2:63:86:30:9a:36:d0:ae:8f:63:d8:f6:5a:5a:5a:6b:f0:00:
00010010000101110000000000000000100100000000011010101100111000100110001110000110001100001001101000110110110100001010111010001111011000111101100011110110010110100101101001011010011010111111000000000000
12:17:00:00:90:06:ac:e2:63:86:52:1a:36:d0:ae:8f:63:d8:f6:5a:5a:5a:6b:f0:00:
00010010000101110000000000000000100100000000011010101100111000100110001110000110010100100001101000110110110100001010111010001111011000111101100011110110010110100101101001011010011010111111000000000000
12:17:00:00:90:06:ac:e2:63:86:84:1a:36:d0:ae:8f:63:d8:f6:5a:5a:5a:6b:f0:00:
00010010000101110000000000000000100100000000011010101100111000100110001110000110100001000001101000110110110100001010111010001111011000111101100011110110010110100101101001011010011010111111000000000000
12:17:00:00:90:06:ac:e2:63:86:b6:1a:36:d0:ae:8f:63:d8:f6:5a:5a:5a:6b:f0:00:
00010010000101110000000000000000100100000000011010101100111000100110001110000110101101100001101000110110110100001010111010001111011000111101100011110110010110100101101001011010011010111111000000000000
12:17:00:00:90:06:ac:e2:63:86:e8:1a:36:d0:ae:8f:63:d8:f6:5a:5a:5a:6b:f0:00:
00010010000101110000000000000000100100000000011010101100111000100110001110000110111010000001101000110110110100001010111010001111011000111101100011110110010110100101101001011010011010111111000000000000
12:17:00:00:90:06:ac:e2:63:87:1a:1a:36:d0:ae:8f:63:d8:f6:5a:5a:5a:6b:f0:00:
00010010000101110000000000000000100100000000011010101100111000100110001110000111000110100001101000110110110100001010111010001111011000111101100011110110010110100101101001011010011010111111000000000000
12:17:00:00:90:06:ac:e2:63:87:3b:5a:36:d0:ae:8f:63:d8:f6:5a:5a:5a:6b:f0:00:
00010010000101110000000000000000100100000000011010101100111000100110001110000111001110110101101000110110110100001010111010001111011000111101100011110110010110100101101001011010011010111111000000000000
12:17:00:00:90:06:ac:e2:63:87:6d:5a:36:d0:ae:8f:63:d8:f6:5a:5a:5a:6b:f0:00:
00010010000101110000000000000000100100000000011010101100111000100110001110000111011011010101101000110110110100001010111010001111011000111101100011110110010110100101101001011010011010111111000000000000
12:17:00:00:90:06:ac:e2:63:87:9f:5a:36:d0:ae:8f:63:d8:f6:5a:5a:5a:6b:f0:00:
00010010000101110000000000000000100100000000011010101100111000100110001110000111100111110101101000110110110100001010111010001111011000111101100011110110010110100101101001011010011010111111000000000000
12:17:00:00:90:06:ac:e2:63:87:d1:5a:36:d0:ae:8f:63:d8:f6:5a:5a:5a:6b:f0:00:
00010010000101110000000000000000100100000000011010101100111000100110001110000111110100010101101000110110110100001010111010001111011000111101100011110110010110100101101001011010011010111111000000000000
12:17:00:00:90:06:ac:e2:63:88:03:5a:36:d0:ae:8f:63:d8:f6:5a:5a:5a:6b:f0:00:
00010010000101110000000000000000100100000000011010101100111000100110001110001000000000110101101000110110110100001010111010001111011000111101100011110110010110100101101001011010011010111111000000000000
12:17:00:00:90:06:ac:e2:63:88:24:9a:36:d0:ae:8f:63:d8:f6:5a:5a:5a:6b:f0:00:
00010010000101110000000000000000100100000000011010101100111000100110001110001000001001001001101000110110110100001010111010001111011000111101100011110110010110100101101001011010011010111111000000000000
12:17:00:00:90:06:ac:e2:63:88:67:5a:36:d0:ae:8f:63:d8:f6:5a:5a:5a:6b:f0:00:
00010010000101110000000000000000100100000000011010101100111000100110001110001000011001110101101000110110110100001010111010001111011000111101100011110110010110100101101001011010011010111111000000000000
12:17:00:00:90:06:ac:e2:63:88:88:9a:36:d0:ae:8f:63:d8:f6:5a:5a:5a:6b:f0:00:
00010010000101110000000000000000100100000000011010101100111000100110001110001000100010001001101000110110110100001010111010001111011000111101100011110110010110100101101001011010011010111111000000000000
12:17:00:00:90:06:ac:e2:63:88:ba:9a:36:d0:ae:8f:63:d8:f6:5a:5a:5a:6b:f0:00:
00010010000101110000000000000000100100000000011010101100111000100110001110001000101110101001101000110110110100001010111010001111011000111101100011110110010110100101101001011010011010111111000000000000
12:17:00:00:90:06:ac:e2:63:88:ec:9a:36:d0:ae:8f:63:d8:f6:5a:5a:5a:6b:f0:00:
00010010000101110000000000000000100100000000011010101100111000100110001110001000111011001001101000110110110100001010111010001111011000111101100011110110010110100101101001011010011010111111000000000000
12:17:00:00:90:06:ac:e2:63:89:1e:9a:36:d0:ae:8f:63:d8:f6:5a:5a:5a:6b:f0:00:
00010010000101110000000000000000100100000000011010101100111000100110001110001001000111101001101000110110110100001010111010001111011000111101100011110110010110100101101001011010011010111111000000000000
12:17:00:00:90:06:ac:e2:63:89:40:1a:36:d0:ae:8f:63:d8:f6:5a:5a:5a:6b:f0:00:
00010010000101110000000000000000100100000000011010101100111000100110001110001001010000000001101000110110110100001010111010001111011000111101100011110110010110100101101001011010011010111111000000000000
12:17:00:00:90:06:ac:e2:63:89:72:1a:36:d0:ae:8f:63:d8:f6:5a:5a:5a:6b:f0:00:
00010010000101110000000000000000100100000000011010101100111000100110001110001001011100100001101000110110110100001010111010001111011000111101100011110110010110100101101001011010011010111111000000000000
12:17:00:00:90:06:ac:e2:63:89:a4:1a:36:d0:ae:8f:63:d8:f6:5a:5a:5a:6b:f0:00:
00010010000101110000000000000000100100000000011010101100111000100110001110001001101001000001101000110110110100001010111010001111011000111101100011110110010110100101101001011010011010111111000000000000
12:17:00:00:90:06:ac:e2:63:89:d6:1a:36:d0:ae:8f:63:d8:f6:5a:5a:5a:6b:f0:00:
00010010000101110000000000000000100100000000011010101100111000100110001110001001110101100001101000110110110100001010111010001111011000111101100011110110010110100101101001011010011010111111000000000000
12:17:00:00:90:06:ac:e2:63:89:e6:9a:36:d0:ae:8f:63:d8:f6:5a:5a:5a:6b:f0:00:
00010010000101110000000000000000100100000000011010101100111000100110001110001001111001101001101000110110110100001010111010001111011000111101100011110110010110100101101001011010011010111111000000000000
12:17:00:00:90:06:ac:e2:63:8a:29:5a:36:d0:ae:8f:63:d8:f6:5a:5a:5a:6b:f0:00:
00010010000101110000000000000000100100000000011010101100111000100110001110001010001010010101101000110110110100001010111010001111011000111101100011110110010110100101101001011010011010111111000000000000
12:17:00:00:90:06:ac:e2:63:8a:5b:5a:36:d0:ae:8f:63:d8:f6:5a:5a:5a:6b:f0:00:
00010010000101110000000000000000100100000000011010101100111000100110001110001010010110110101101000110110110100001010111010001111011000111101100011110110010110100101101001011010011010111111000000000000
12:17:00:00:90:06:ac:e2:63:8a:8d:5a:36:d0:ae:8f:63:d8:f6:5a:5a:5a:6b:f0:00:
00010010000101110000000000000000100100000000011010101100111000100110001110001010100011010101101000110110110100001010111010001111011000111101100011110110010110100101101001011010011010111111000000000000
12:17:00:00:90:06:ac:e2:63:8a:ae:9a:36:d0:ae:8f:63:d8:f6:5a:5a:5a:6b:f0:00:
00010010000101110000000000000000100100000000011010101100111000100110001110001010101011101001101000110110110100001010111010001111011000111101100011110110010110100101101001011010011010111111000000000000
12:17:00:00:90:06:ac:e2:63:8a:e0:9a:36:d0:ae:8f:63:d8:f6:5a:5a:5a:6b:f0:00:
00010010000101110000000000000000100100000000011010101100111000100110001110001010111000001001101000110110110100001010111010001111011000111101100011110110010110100101101001011010011010111111000000000000
12:17:00:00:90:06:ac:e2:63:8b:12:9a:36:d0:ae:8f:63:d8:f6:5a:5a:5a:6b:f0:00:
00010010000101110000000000000000100100000000011010101100111000100110001110001011000100101001101000110110110100001010111010001111011000111101100011110110010110100101101001011010011010111111000000000000
12:17:00:00:90:06:ac:e2:63:8b:34:1a:36:d0:ae:8f:63:d8:f6:5a:5a:5a:6b:f0:00:
00010010000101110000000000000000100100000000011010101100111000100110001110001011001101000001101000110110110100001010111010001111011000111101100011110110010110100101101001011010011010111111000000000000
12:17:00:00:90:06:ac:e2:63:8b:66:1a:36:d0:ae:8f:63:d8:f6:5a:5a:5a:6b:f0:00:
00010010000101110000000000000000100100000000011010101100111000100110001110001011011001100001101000110110110100001010111010001111011000111101100011110110010110100101101001011010011010111111000000000000
12:17:00:00:90:06:ac:e2:63:8b:98:1a:36:d0:ae:8f:63:d8:f6:5a:5a:5a:6b:f0:00:
00010010000101110000000000000000100100000000011010101100111000100110001110001011100110000001101000110110110100001010111010001111011000111101100011110110010110100101101001011010011010111111000000000000
12:17:00:00:90:06:ac:e2:63:8b:b9:5a:36:d0:ae:8f:63:d8:f6:5a:5a:5a:6b:f0:00:
00010010000101110000000000000000100100000000011010101100111000100110001110001011101110010101101000110110110100001010111010001111011000111101100011110110010110100101101001011010011010111111000000000000
12:17:00:00:90:06:ac:e2:63:8b:eb:5a:36:d0:ae:8f:63:d8:f6:5a:5a:5a:6b:f0:00:
00010010000101110000000000000000100100000000011010101100111000100110001110001011111010110101101000110110110100001010111010001111011000111101100011110110010110100101101001011010011010111111000000000000
12:17:00:00:90:06:ac:e2:63:8c:1d:5a:36:d0:ae:8f:63:d8:f6:5a:5a:5a:6b:f0:00:
00010010000101110000000000000000100100000000011010101100111000100110001110001100000111010101101000110110110100001010111010001111011000111101100011110110010110100101101001011010011010111111000000000000
12:17:00:00:90:06:ac:e2:63:8c:4f:5a:36:d0:ae:8f:63:d8:f6:5a:5a:5a:6b:f0:00:
00010010000101110000000000000000100100000000011010101100111000100110001110001100010011110101101000110110110100001010111010001111011000111101100011110110010110100101101001011010011010111111000000000000
12:17:00:00:90:06:ac:e2:63:8c:81:5a:36:d0:ae:8f:63:d8:f6:5a:5a:5a:6b:f0:00:
00010010000101110000000000000000100100000000011010101100111000100110001110001100100000010101101000110110110100001010111010001111011000111101100011110110010110100101101001011010011010111111000000000000
12:17:00:00:90:06:ac:e2:63:8c:a2:9a:36:d0:ae:8f:63:d8:f6:5a:5a:5a:6b:f0:00:
00010010000101110000000000000000100100000000011010101100111000100110001110001100101000101001101000110110110100001010111010001111011000111101100011110110010110100101101001011010011010111111000000000000
12:17:00:00:90:06:ac:e2:63:8c:d4:9a:36:d0:ae:8f:63:d8:f6:5a:5a:5a:6b:f0:00:
00010010000101110000000000000000100100000000011010101100111000100110001110001100110101001001101000110110110100001010111010001111011000111101100011110110010110100101101001011010011010111111000000000000
12:17:00:00:90:06:ac:e2:63:8c:f6:1a:36:d0:ae:8f:63:d8:f6:5a:5a:5a:6b:f0:00:
00010010000101110000000000000000100100000000011010101100111000100110001110001100111101100001101000110110110100001010111010001111011000111101100011110110010110100101101001011010011010111111000000000000
12:17:00:00:90:06:ac:e2:63:8d:38:9a:36:d0:ae:8f:63:d8:f6:5a:5a:5a:6b:f0:00:
00010010000101110000000000000000100100000000011010101100111000100110001110001101001110001001101000110110110100001010111010001111011000111101100011110110010110100101101001011010011010111111000000000000
12:17:00:00:90:06:ac:e2:63:8d:5a:1a:36:d0:ae:8f:63:d8:f6:5a:5a:5a:6b:f0:00:
00010010000101110000000000000000100100000000011010101100111000100110001110001101010110100001101000110110110100001010111010001111011000111101100011110110010110100101101001011010011010111111000000000000
12:17:00:00:90:06:ac:e2:63:8d:8c:1a:36:d0:ae:8f:63:d8:f6:5a:5a:5a:6b:f0:00:
00010010000101110000000000000000100100000000011010101100111000100110001110001101100011000001101000110110110100001010111010001111011000111101100011110110010110100101101001011010011010111111000000000000
12:17:00:00:90:06:ac:e2:63:8d:be:1a:36:d0:ae:8f:63:d8:f6:5a:5a:5a:6b:f0:00:
00010010000101110000000000000000100100000000011010101100111000100110001110001101101111100001101000110110110100001010111010001111011000111101100011110110010110100101101001011010011010111111000000000000
12:17:00:00:90:06:ac:e2:63:8d:f0:1a:36:d0:ae:8f:63:d8:f6:5a:5a:5a:6b:f0:00:
00010010000101110000000000000000100100000000011010101100111000100110001110001101111100000001101000110110110100001010111010001111011000111101100011110110010110100101101001011010011010111111000000000000
12:17:00:00:90:06:ac:e2:63:8e:11:5a:36:d0:ae:8f:63:d8:f6:5a:5a:5a:6b:f0:00:
00010010000101110000000000000000100100000000011010101100111000100110001110001110000100010101101000110110110100001010111010001111011000111101100011110110010110100101101001011010011010111111000000000000
12:17:00:00:90:06:ac:e2:63:8e:32:9a:36:d0:ae:8f:63:d8:f6:5a:5a:5a:6b:f0:00:
00010010000101110000000000000000100100000000011010101100111000100110001110001110001100101001101000110110110100001010111010001111011000111101100011110110010110100101101001011010011010111111000000000000
12:17:00:00:90:06:ac:e2:63:8e:75:5a:36:d0:ae:8f:63:d8:f6:5a:5a:5a:6b:f0:00:
00010010000101110000000000000000100100000000011010101100111000100110001110001110011101010101101000110110110100001010111010001111011000111101100011110110010110100101101001011010011010111111000000000000
12:17:00:00:90:06:ac:e2:63:8e:a7:5a:36:d0:ae:8f:63:d8:f6:5a:5a:5a:6b:f0:00:
00010010000101110000000000000000100100000000011010101100111000100110001110001110101001110101101000110110110100001010111010001111011000111101100011110110010110100101101001011010011010111111000000000000
12:17:00:00:90:06:ac:e2:63:8e:c8:9a:36:d0:ae:8f:63:d8:f6:5a:5a:5a:6b:f0:00:
00010010000101110000000000000000100100000000011010101100111000100110001110001110110010001001101000110110110100001010111010001111011000111101100011110110010110100101101001011010011010111111000000000000
12:17:00:00:90:06:ac:e2:63:8f:0b:5a:36:d0:ae:8f:63:d8:f6:5a:5a:5a:6b:f0:00:
00010010000101110000000000000000100100000000011010101100111000100110001110001111000010110101101000110110110100001010111010001111011000111101100011110110010110100101101001011010011010111111000000000000
12:17:00:00:90:06:ac:e2:63:8f:2c:9a:36:d0:ae:8f:63:d8:f6:5a:5a:5a:6b:f0:00:
00010010000101110000000000000000100100000000011010101100111000100110001110001111001011001001101000110110110100001010111010001111011000111101100011110110010110100101101001011010011010111111000000000000
12:17:00:00:90:06:ac:e2:63:8f:5e:9a:36:d0:ae:8f:63:d8:f6:5a:5a:5a:6b:f0:00:
00010010000101110000000000000000100100000000011010101100111000100110001110001111010111101001101000110110110100001010111010001111011000111101100011110110010110100101101001011010011010111111000000000000
12:17:00:00:90:06:ac:e2:63:8f:90:9a:36:d0:ae:8f:63:d8:f6:5a:5a:5a:6b:f0:00:
00010010000101110000000000000000100100000000011010101100111000100110001110001111100100001001101000110110110100001010111010001111011000111101100011110110010110100101101001011010011010111111000000000000
12:17:00:00:90:06:ac:e2:63:8f:c2:9a:36:d0:ae:8f:63:d8:f6:5a:5a:5a:6b:f0:00:
00010010000101110000000000000000100100000000011010101100111000100110001110001111110000101001101000110110110100001010111010001111011000111101100011110110010110100101101001011010011010111111000000000000
12:17:00:00:90:06:ac:e2:63:8f:f4:9a:36:d0:ae:8f:63:d8:f6:5a:5a:5a:6b:f0:00:
00010010000101110000000000000000100100000000011010101100111000100110001110001111111101001001101000110110110100001010111010001111011000111101100011110110010110100101101001011010011010111111000000000000
12:17:00:00:90:06:ac:e2:63:90:05:5a:36:d0:ae:8f:63:d8:f6:5a:5a:5a:6b:f0:00:
00010010000101110000000000000000100100000000011010101100111000100110001110010000000001010101101000110110110100001010111010001111011000111101100011110110010110100101101001011010011010111111000000000000
12:17:00:00:90:06:ac:e2:63:90:48:1a:36:d0:ae:8f:63:d8:f6:5a:5a:5a:6b:f0:00:
00010010000101110000000000000000100100000000011010101100111000100110001110010000010010000001101000110110110100001010111010001111011000111101100011110110010110100101101001011010011010111111000000000000
12:17:00:00:90:06:ac:e2:63:90:7a:1a:36:d0:ae:8f:63:d8:f6:5a:5a:5a:6b:f0:00:
00010010000101110000000000000000100100000000011010101100111000100110001110010000011110100001101000110110110100001010111010001111011000111101100011110110010110100101101001011010011010111111000000000000
12:17:00:00:90:06:ac:e2:63:90:9b:5a:36:d0:ae:8f:63:d8:f6:5a:5a:5a:6b:f0:00:
00010010000101110000000000000000100100000000011010101100111000100110001110010000100110110101101000110110110100001010111010001111011000111101100011110110010110100101101001011010011010111111000000000000
12:17:00:00:90:06:ac:e2:63:90:cd:5a:36:d0:ae:8f:63:d8:f6:5a:5a:5a:6b:f0:00:
00010010000101110000000000000000100100000000011010101100111000100110001110010000110011010101101000110110110100001010111010001111011000111101100011110110010110100101101001011010011010111111000000000000
12:17:00:00:90:06:ac:e2:63:90:ff:5a:36:d0:ae:8f:63:d8:f6:5a:5a:5a:6b:f0:00:
00010010000101110000000000000000100100000000011010101100111000100110001110010000111111110101101000110110110100001010111010001111011000111101100011110110010110100101101001011010011010111111000000000000
12:17:00:00:90:06:ac:e2:63:91:20:9a:36:d0:ae:8f:63:d8:f6:5a:5a:5a:6b:f0:00:
00010010000101110000000000000000100100000000011010101100111000100110001110010001001000001001101000110110110100001010111010001111011000111101100011110110010110100101101001011010011010111111000000000000
12:17:00:00:90:06:ac:e2:63:91:52:9a:36:d0:ae:8f:63:d8:f6:5a:5a:5a:6b:f0:00:
00010010000101110000000000000000100100000000011010101100111000100110001110010001010100101001101000110110110100001010111010001111011000111101100011110110010110100101101001011010011010111111000000000000
12:17:00:00:90:06:ac:e2:63:91:84:9a:36:d0:ae:8f:63:d8:f6:5a:5a:5a:6b:f0:00:
00010010000101110000000000000000100100000000011010101100111000100110001110010001100001001001101000110110110100001010111010001111011000111101100011110110010110100101101001011010011010111111000000000000
12:17:00:00:90:06:ac:e2:63:91:b6:9a:36:d0:ae:8f:63:d8:f6:5a:5a:5a:6b:f0:00:
00010010000101110000000000000000100100000000011010101100111000100110001110010001101101101001101000110110110100001010111010001111011000111101100011110110010110100101101001011010011010111111000000000000
12:17:00:00:90:06:ac:e2:63:91:d8:1a:36:d0:ae:8f:63:d8:f6:5a:5a:5a:6b:f0:00:
00010010000101110000000000000000100100000000011010101100111000100110001110010001110110000001101000110110110100001010111010001111011000111101100011110110010110100101101001011010011010111111000000000000
12:17:00:00:90:06:ac:e2:63:92:0a:1a:36:d0:ae:8f:63:d8:f6:5a:5a:5a:6b:f0:00:
00010010000101110000000000000000100100000000011010101100111000100110001110010010000010100001101000110110110100001010111010001111011000111101100011110110010110100101101001011010011010111111000000000000
12:17:00:00:90:06:ac:e2:63:92:3c:1a:36:d0:ae:8f:63:d8:f6:5a:5a:5a:6b:f0:00:
00010010000101110000000000000000100100000000011010101100111000100110001110010010001111000001101000110110110100001010111010001111011000111101100011110110010110100101101001011010011010111111000000000000
12:17:00:00:90:06:ac:e2:63:92:6e:1a:36:d0:ae:8f:63:d8:f6:5a:5a:5a:6b:f0:00:
00010010000101110000000000000000100100000000011010101100111000100110001110010010011011100001101000110110110100001010111010001111011000111101100011110110010110100101101001011010011010111111000000000000
12:17:00:00:90:06:ac:e2:63:92:8f:5a:36:d0:ae:8f:63:d8:f6:5a:5a:5a:6b:f0:00:
00010010000101110000000000000000100100000000011010101100111000100110001110010010100011110101101000110110110100001010111010001111011000111101100011110110010110100101101001011010011010111111000000000000
12:17:00:00:90:06:ac:e2:63:92:c1:5a:36:d0:ae:8f:63:d8:f6:5a:5a:5a:6b:f0:00:
00010010000101110000000000000000100100000000011010101100111000100110001110010010110000010101101000110110110100001010111010001111011000111101100011110110010110100101101001011010011010111111000000000000
12:17:00:00:90:06:ac:e2:63:92:f3:5a:36:d0:ae:8f:63:d8:f6:5a:5a:5a:6b:f0:00:
00010010000101110000000000000000100100000000011010101100111000100110001110010010111100110101101000110110110100001010111010001111011000111101100011110110010110100101101001011010011010111111000000000000
12:17:00:00:90:06:ac:e2:63:93:14:9a:36:d0:ae:8f:63:d8:f6:5a:5a:5a:6b:f0:00:
00010010000101110000000000000000100100000000011010101100111000100110001110010011000101001001101000110110110100001010111010001111011000111101100011110110010110100101101001011010011010111111000000000000
12:17:00:00:90:06:ac:e2:63:93:46:9a:36:d0:ae:8f:63:d8:f6:5a:5a:5a:6b:f0:00:
00010010000101110000000000000000100100000000011010101100111000100110001110010011010001101001101000110110110100001010111010001111011000111101100011110110010110100101101001011010011010111111000000000000
12:17:00:00:90:06:ac:e2:63:93:78:9a:36:d0:ae:8f:63:d8:f6:5a:5a:5a:6b:f0:00:
00010010000101110000000000000000100100000000011010101100111000100110001110010011011110001001101000110110110100001010111010001111011000111101100011110110010110100101101001011010011010111111000000000000
12:17:00:00:90:06:ac:e2:63:93:aa:9a:36:d0:ae:8f:63:d8:f6:5a:5a:5a:6b:f0:00:
00010010000101110000000000000000100100000000011010101100111000100110001110010011101010101001101000110110110100001010111010001111011000111101100011110110010110100101101001011010011010111111000000000000
12:17:00:00:90:06:ac:e2:63:93:dc:9a:36:d0:ae:8f:63:d8:f6:5a:5a:5a:6b:f0:00:
00010010000101110000000000000000100100000000011010101100111000100110001110010011110111001001101000110110110100001010111010001111011000111101100011110110010110100101101001011010011010111111000000000000
12:17:00:00:90:06:ac:e2:63:93:fe:1a:36:d0:ae:8f:63:d8:f6:5a:5a:5a:6b:f0:00:
00010010000101110000000000000000100100000000011010101100111000100110001110010011111111100001101000110110110100001010111010001111011000111101100011110110010110100101101001011010011010111111000000000000
12:17:00:00:90:06:ac:e2:63:94:30:1a:36:d0:ae:8f:63:d8:f6:5a:5a:5a:6b:f0:00:
00010010000101110000000000000000100100000000011010101100111000100110001110010100001100000001101000110110110100001010111010001111011000111101100011110110010110100101101001011010011010111111000000000000
12:17:00:00:90:06:ac:e2:63:94:51:5a:36:d0:ae:8f:63:d8:f6:5a:5a:5a:6b:f0:00:
00010010000101110000000000000000100100000000011010101100111000100110001110010100010100010101101000110110110100001010111010001111011000111101100011110110010110100101101001011010011010111111000000000000
12:17:00:00:90:06:ac:e2:63:94:94:1a:36:d0:ae:8f:63:d8:f6:5a:5a:5a:6b:f0:00:
00010010000101110000000000000000100100000000011010101100111000100110001110010100100101000001101000110110110100001010111010001111011000111101100011110110010110100101101001011010011010111111000000000000
12:17:00:00:90:06:ac:e2:63:94:b5:5a:36:d0:ae:8f:63:d8:f6:5a:5a:5a:6b:f0:00:
00010010000101110000000000000000100100000000011010101100111000100110001110010100101101010101101000110110110100001010111010001111011000111101100011110110010110100101101001011010011010111111000000000000
12:17:00:00:90:06:ac:e2:63:94:e7:5a:36:d0:ae:8f:63:d8:f6:5a:5a:5a:6b:f0:00:
00010010000101110000000000000000100100000000011010101100111000100110001110010100111001110101101000110110110100001010111010001111011000111101100011110110010110100101101001011010011010111111000000000000
12:17:00:00:90:06:ac:e2:63:95:19:5a:36:d0:ae:8f:63:d8:f6:5a:5a:5a:6b:f0:00:
00010010000101110000000000000000100100000000011010101100111000100110001110010101000110010101101000110110110100001010111010001111011000111101100011110110010110100101101001011010011010111111000000000000
12:17:00:00:90:06:ac:e2:63:95:4b:5a:36:d0:ae:8f:63:d8:f6:5a:5a:5a:6b:f0:00:
00010010000101110000000000000000100100000000011010101100111000100110001110010101010010110101101000110110110100001010111010001111011000111101100011110110010110100101101001011010011010111111000000000000
12:17:00:00:90:06:ac:e2:63:95:6c:9a:36:d0:ae:8f:63:d8:f6:5a:5a:5a:6b:f0:00:
00010010000101110000000000000000100100000000011010101100111000100110001110010101011011001001101000110110110100001010111010001111011000111101100011110110010110100101101001011010011010111111000000000000
12:17:00:00:90:06:ac:e2:63:95:9e:9a:36:d0:ae:8f:63:d8:f6:5a:5a:5a:6b:f0:00:
00010010000101110000000000000000100100000000011010101100111000100110001110010101100111101001101000110110110100001010111010001111011000111101100011110110010110100101101001011010011010111111000000000000
12:17:00:00:90:06:ac:e2:63:95:d0:9a:36:d0:ae:8f:63:d8:f6:5a:5a:5a:6b:f0:00:
00010010000101110000000000000000100100000000011010101100111000100110001110010101110100001001101000110110110100001010111010001111011000111101100011110110010110100101101001011010011010111111000000000000
12:17:00:00:90:06:ac:e2:63:96:02:9a:36:d0:ae:8f:63:d8:f6:5a:5a:5a:6b:f0:00:
00010010000101110000000000000000100100000000011010101100111000100110001110010110000000101001101000110110110100001010111010001111011000111101100011110110010110100101101001011010011010111111000000000000
12:17:00:00:90:06:ac:e2:63:96:24:1a:36:d0:ae:8f:63:d8:f6:5a:5a:5a:6b:f0:00:
00010010000101110000000000000000100100000000011010101100111000100110001110010110001001000001101000110110110100001010111010001111011000111101100011110110010110100101101001011010011010111111000000000000
12:17:00:00:90:06:ac:e2:63:96:56:1a:36:d0:ae:8f:63:d8:f6:5a:5a:5a:6b:f0:00:
00010010000101110000000000000000100100000000011010101100111000100110001110010110010101100001101000110110110100001010111010001111011000111101100011110110010110100101101001011010011010111111000000000000
12:17:00:00:90:06:ac:e2:63:96:88:1a:36:d0:ae:8f:63:d8:f6:5a:5a:5a:6b:f0:00:
00010010000101110000000000000000100100000000011010101100111000100110001110010110100010000001101000110110110100001010111010001111011000111101100011110110010110100101101001011010011010111111000000000000
12:17:00:00:90:06:ac:e2:63:96:ba:1a:36:d0:ae:8f:63:d8:f6:5a:5a:5a:6b:f0:00:
00010010000101110000000000000000100100000000011010101100111000100110001110010110101110100001101000110110110100001010111010001111011000111101100011110110010110100101101001011010011010111111000000000000
12:17:00:00:90:06:ac:e2:63:96:ec:1a:36:d0:ae:8f:63:d8:f6:5a:5a:5a:6b:f0:00:
00010010000101110000000000000000100100000000011010101100111000100110001110010110111011000001101000110110110100001010111010001111011000111101100011110110010110100101101001011010011010111111000000000000
12:17:00:00:90:06:ac:e2:63:97:0d:5a:36:d0:ae:8f:63:d8:f6:5a:5a:5a:6b:f0:00:
00010010000101110000000000000000100100000000011010101100111000100110001110010111000011010101101000110110110100001010111010001111011000111101100011110110010110100101101001011010011010111111000000000000
12:17:00:00:90:06:ac:e2:63:97:3f:5a:36:d0:ae:8f:63:d8:f6:5a:5a:5a:6b:f0:00:
00010010000101110000000000000000100100000000011010101100111000100110001110010111001111110101101000110110110100001010111010001111011000111101100011110110010110100101101001011010011010111111000000000000
12:17:00:00:90:06:ac:e2:63:97:71:5a:36:d0:ae:8f:63:d8:f6:5a:5a:5a:6b:f0:00:
00010010000101110000000000000000100100000000011010101100111000100110001110010111011100010101101000110110110100001010111010001111011000111101100011110110010110100101101001011010011010111111000000000000
12:17:00:00:90:06:ac:e2:63:97:a3:5a:36:d0:ae:8f:63:d8:f6:5a:5a:5a:6b:f0:00:
00010010000101110000000000000000100100000000011010101100111000100110001110010111101000110101101000110110110100001010111010001111011000111101100011110110010110100101101001011010011010111111000000000000
12:17:00:00:90:06:ac:e2:63:97:c4:9a:36:d0:ae:8f:63:d8:f6:5a:5a:5a:6b:f0:00:
00010010000101110000000000000000100100000000011010101100111000100110001110010111110001001001101000110110110100001010111010001111011000111101100011110110010110100101101001011010011010111111000000000000
12:17:00:00:90:06:ac:e2:63:97:f6:9a:36:d0:ae:8f:63:d8:f6:5a:5a:5a:6b:f0:00:
00010010000101110000000000000000100100000000011010101100111000100110001110010111111101101001101000110110110100001010111010001111011000111101100011110110010110100101101001011010011010111111000000000000
12:17:00:00:90:06:ac:e2:63:98:28:9a:36:d0:ae:8f:63:d8:f6:5a:5a:5a:6b:f0:00:
00010010000101110000000000000000100100000000011010101100111000100110001110011000001010001001101000110110110100001010111010001111011000111101100011110110010110100101101001011010011010111111000000000000
12:17:00:00:90:06:ac:e2:63:98:5a:9a:36:d0:ae:8f:63:d8:f6:5a:5a:5a:6b:f0:00:
00010010000101110000000000000000100100000000011010101100111000100110001110011000010110101001101000110110110100001010111010001111011000111101100011110110010110100101101001011010011010111111000000000000
12:17:00:00:90:06:ac:e2:63:98:7c:1a:36:d0:ae:8f:63:d8:f6:5a:5a:5a:6b:f0:00:
00010010000101110000000000000000100100000000011010101100111000100110001110011000011111000001101000110110110100001010111010001111011000111101100011110110010110100101101001011010011010111111000000000000
12:17:00:00:90:06:ac:e2:63:98:ae:1a:36:d0:ae:8f:63:d8:f6:5a:5a:5a:6b:f0:00:
00010010000101110000000000000000100100000000011010101100111000100110001110011000101011100001101000110110110100001010111010001111011000111101100011110110010110100101101001011010011010111111000000000000
12:17:00:00:90:06:ac:e2:63:98:e0:1a:36:d0:ae:8f:63:d8:f6:5a:5a:5a:6b:f0:00:
00010010000101110000000000000000100100000000011010101100111000100110001110011000111000000001101000110110110100001010111010001111011000111101100011110110010110100101101001011010011010111111000000000000
12:17:00:00:90:06:ac:e2:63:99:12:1a:36:d0:ae:8f:63:d8:f6:5a:5a:5a:6b:f0:00:
00010010000101110000000000000000100100000000011010101100111000100110001110011001000100100001101000110110110100001010111010001111011000111101100011110110010110100101101001011010011010111111000000000000
12:17:00:00:90:06:ac:e2:63:99:22:9a:36:d0:ae:8f:63:d8:f6:5a:5a:5a:6b:f0:00:
00010010000101110000000000000000100100000000011010101100111000100110001110011001001000101001101000110110110100001010111010001111011000111101100011110110010110100101101001011010011010111111000000000000
12:17:00:00:90:06:ac:e2:63:99:65:5a:36:d0:ae:8f:63:d8:f6:5a:5a:5a:6b:f0:00:
00010010000101110000000000000000100100000000011010101100111000100110001110011001011001010101101000110110110100001010111010001111011000111101100011110110010110100101101001011010011010111111000000000000
12:17:00:00:90:06:ac:e2:63:99:86:9a:36:d0:ae:8f:63:d8:f6:5a:5a:5a:6b:f0:00:
00010010000101110000000000000000100100000000011010101100111000100110001110011001100001101001101000110110110100001010111010001111011000111101100011110110010110100101101001011010011010111111000000000000
12:17:00:00:90:06:ac:e2:63:99:a8:1a:36:d0:ae:8f:63:d8:f6:5a:5a:5a:6b:f0:00:
00010010000101110000000000000000100100000000011010101100111000100110001110011001101010000001101000110110110100001010111010001111011000111101100011110110010110100101101001011010011010111111000000000000
12:17:00:00:90:06:ac:e2:63:99:da:1a:36:d0:ae:8f:63:d8:f6:5a:5a:5a:6b:f0:00:
00010010000101110000000000000000100100000000011010101100111000100110001110011001110110100001101000110110110100001010111010001111011000111101100011110110010110100101101001011010011010111111000000000000
12:17:00:00:90:06:ac:e2:63:9a:0c:1a:36:d0:ae:8f:63:d8:f6:5a:5a:5a:6b:f0:00:
00010010000101110000000000000000100100000000011010101100111000100110001110011010000011000001101000110110110100001010111010001111011000111101100011110110010110100101101001011010011010111111000000000000
12:17:00:00:90:06:ac:e2:63:9a:2d:5a:36:d0:ae:8f:63:d8:f6:5a:5a:5a:6b:f0:00:
00010010000101110000000000000000100100000000011010101100111000100110001110011010001011010101101000110110110100001010111010001111011000111101100011110110010110100101101001011010011010111111000000000000
12:17:00:00:90:06:ac:e2:63:9a:5f:5a:36:d0:ae:8f:63:d8:f6:5a:5a:5a:6b:f0:00:
00010010000101110000000000000000100100000000011010101100111000100110001110011010010111110101101000110110110100001010111010001111011000111101100011110110010110100101101001011010011010111111000000000000
12:17:00:00:90:06:ac:e2:63:9a:91:5a:36:d0:ae:8f:63:d8:f6:5a:5a:5a:6b:f0:00:
00010010000101110000000000000000100100000000011010101100111000100110001110011010100100010101101000110110110100001010111010001111011000111101100011110110010110100101101001011010011010111111000000000000
12:17:00:00:90:06:ac:e2:63:9a:c3:5a:36:d0:ae:8f:63:d8:f6:5a:5a:5a:6b:f0:00:
00010010000101110000000000000000100100000000011010101100111000100110001110011010110000110101101000110110110100001010111010001111011000111101100011110110010110100101101001011010011010111111000000000000
12:17:00:00:90:06:ac:e2:63:9a:d4:1a:36:d0:ae:8f:63:d8:f6:5a:5a:5a:6b:f0:00:
00010010000101110000000000000000100100000000011010101100111000100110001110011010110101000001101000110110110100001010111010001111011000111101100011110110010110100101101001011010011010111111000000000000
12:17:00:00:90:06:ac:e2:63:9b:16:9a:36:d0:ae:8f:63:d8:f6:5a:5a:5a:6b:f0:00:
00010010000101110000000000000000100100000000011010101100111000100110001110011011000101101001101000110110110100001010111010001111011000111101100011110110010110100101101001011010011010111111000000000000
12:17:00:00:90:06:ac:e2:63:9b:48:9a:36:d0:ae:8f:63:d8:f6:5a:5a:5a:6b:f0:00:
00010010000101110000000000000000100100000000011010101100111000100110001110011011010010001001101000110110110100001010111010001111011000111101100011110110010110100101101001011010011010111111000000000000
12:17:00:00:90:06:ac:e2:63:9b:7a:9a:36:d0:ae:8f:63:d8:f6:5a:5a:5a:6b:f0:00:
00010010000101110000000000000000100100000000011010101100111000100110001110011011011110101001101000110110110100001010111010001111011000111101100011110110010110100101101001011010011010111111000000000000
12:17:00:00:90:06:ac:e2:63:9b:ac:9a:36:d0:ae:8f:63:d8:f6:5a:5a:5a:6b:f0:00:
00010010000101110000000000000000100100000000011010101100111000100110001110011011101011001001101000110110110100001010111010001111011000111101100011110110010110100101101001011010011010111111000000000000
12:17:00:00:90:06:ac:e2:63:9b:ce:1a:36:d0:ae:8f:63:d8:f6:5a:5a:5a:6b:f0:00:
00010010000101110000000000000000100100000000011010101100111000100110001110011011110011100001101000110110110100001010111010001111011000111101100011110110010110100101101001011010011010111111000000000000
12:17:00:00:90:06:ac:e2:63:9c:00:1a:36:d0:ae:8f:63:d8:f6:5a:5a:5a:6b:f0:00:
00010010000101110000000000000000100100000000011010101100111000100110001110011100000000000001101000110110110100001010111010001111011000111101100011110110010110100101101001011010011010111111000000000000
12:17:00:00:90:06:ac:e2:63:9c:32:1a:36:d0:ae:8f:63:d8:f6:5a:5a:5a:6b:f0:00:
00010010000101110000000000000000100100000000011010101100111000100110001110011100001100100001101000110110110100001010111010001111011000111101100011110110010110100101101001011010011010111111000000000000
12:17:00:00:90:06:ac:e2:63:9c:64:1a:36:d0:ae:8f:63:d8:f6:5a:5a:5a:6b:f0:00:
00010010000101110000000000000000100100000000011010101100111000100110001110011100011001000001101000110110110100001010111010001111011000111101100011110110010110100101101001011010011010111111000000000000
12:17:00:00:90:06:ac:e2:63:9c:96:1a:36:d0:ae:8f:63:d8:f6:5a:5a:5a:6b:f0:00:
00010010000101110000000000000000100100000000011010101100111000100110001110011100100101100001101000110110110100001010111010001111011000111101100011110110010110100101101001011010011010111111000000000000
12:17:00:00:90:06:ac:e2:63:9c:c8:1a:36:d0:ae:8f:63:d8:f6:5a:5a:5a:6b:f0:00:
00010010000101110000000000000000100100000000011010101100111000100110001110011100110010000001101000110110110100001010111010001111011000111101100011110110010110100101101001011010011010111111000000000000
12:17:00:00:90:06:ac:e2:63:9c:fa:1a:36:d0:ae:8f:63:d8:f6:5a:5a:5a:6b:f0:00:
00010010000101110000000000000000100100000000011010101100111000100110001110011100111110100001101000110110110100001010111010001111011000111101100011110110010110100101101001011010011010111111000000000000
12:17:00:00:90:06:ac:e2:63:9d:1b:5a:36:d0:ae:8f:63:d8:f6:5a:5a:5a:6b:f0:00:
00010010000101110000000000000000100100000000011010101100111000100110001110011101000110110101101000110110110100001010111010001111011000111101100011110110010110100101101001011010011010111111000000000000
12:17:00:00:90:06:ac:e2:63:9d:4d:5a:36:d0:ae:8f:63:d8:f6:5a:5a:5a:6b:f0:00:
00010010000101110000000000000000100100000000011010101100111000100110001110011101010011010101101000110110110100001010111010001111011000111101100011110110010110100101101001011010011010111111000000000000
12:17:00:00:90:06:ac:e2:63:9d:7f:5a:36:d0:ae:8f:63:d8:f6:5a:5a:5a:6b:f0:00:
00010010000101110000000000000000100100000000011010101100111000100110001110011101011111110101101000110110110100001010111010001111011000111101100011110110010110100101101001011010011010111111000000000000
12:17:00:00:90:06:ac:e2:63:9d:b1:5a:36:d0:ae:8f:63:d8:f6:5a:5a:5a:6b:f0:00:
00010010000101110000000000000000100100000000011010101100111000100110001110011101101100010101101000110110110100001010111010001111011000111101100011110110010110100101101001011010011010111111000000000000
12:17:00:00:90:06:ac:e2:63:9d:d2:9a:36:d0:ae:8f:63:d8:f6:5a:5a:5a:6b:f0:00:
00010010000101110000000000000000100100000000011010101100111000100110001110011101110100101001101000110110110100001010111010001111011000111101100011110110010110100101101001011010011010111111000000000000
12:17:00:00:90:06:ac:e2:63:9e:04:9a:36:d0:ae:8f:63:d8:f6:5a:5a:5a:6b:f0:00:
00010010000101110000000000000000100100000000011010101100111000100110001110011110000001001001101000110110110100001010111010001111011000111101100011110110010110100101101001011010011010111111000000000000
12:17:00:00:90:06:ac:e2:63:9e:26:1a:36:d0:ae:8f:63:d8:f6:5a:5a:5a:6b:f0:00:
00010010000101110000000000000000100100000000011010101100111000100110001110011110001001100001101000110110110100001010111010001111011000111101100011110110010110100101101001011010011010111111000000000000
12:17:00:00:90:06:ac:e2:63:9e:58:1a:36:d0:ae:8f:63:d8:f6:5a:5a:5a:6b:f0:00:
00010010000101110000000000000000100100000000011010101100111000100110001110011110010110000001101000110110110100001010111010001111011000111101100011110110010110100101101001011010011010111111000000000000
12:17:00:00:90:06:ac:e2:63:9e:8a:1a:36:d0:ae:8f:63:d8:f6:5a:5a:5a:6b:f0:00:
00010010000101110000000000000000100100000000011010101100111000100110001110011110100010100001101000110110110100001010111010001111011000111101100011110110010110100101101001011010011010111111000000000000
12:17:00:00:90:06:ac:e2:63:9e:bc:1a:36:d0:ae:8f:63:d8:f6:5a:5a:5a:6b:f0:00:
00010010000101110000000000000000100100000000011010101100111000100110001110011110101111000001101000110110110100001010111010001111011000111101100011110110010110100101101001011010011010111111000000000000
12:17:00:00:90:06:ac:e2:63:9e:dd:5a:36:d0:ae:8f:63:d8:f6:5a:5a:5a:6b:f0:00:
00010010000101110000000000000000100100000000011010101100111000100110001110011110110111010101101000110110110100001010111010001111011000111101100011110110010110100101101001011010011010111111000000000000
12:17:00:00:90:06:ac:e2:63:9f:0f:5a:36:d0:ae:8f:63:d8:f6:5a:5a:5a:6b:f0:00:
00010010000101110000000000000000100100000000011010101100111000100110001110011111000011110101101000110110110100001010111010001111011000111101100011110110010110100101101001011010011010111111000000000000
12:17:00:00:90:06:ac:e2:63:9f:30:9a:36:d0:ae:8f:63:d8:f6:5a:5a:5a:6b:f0:00:
00010010000101110000000000000000100100000000011010101100111000100110001110011111001100001001101000110110110100001010111010001111011000111101100011110110010110100101101001011010011010111111000000000000
12:17:00:00:90:06:ac:e2:63:9f:73:5a:36:d0:ae:8f:63:d8:f6:5a:5a:5a:6b:f0:00:
00010010000101110000000000000000100100000000011010101100111000100110001110011111011100110101101000110110110100001010111010001111011000111101100011110110010110100101101001011010011010111111000000000000
12:17:00:00:90:06:ac:e2:63:9f:a5:5a:36:d0:ae:8f:63:d8:f6:5a:5a:5a:6b:f0:00:
00010010000101110000000000000000100100000000011010101100111000100110001110011111101001010101101000110110110100001010111010001111011000111101100011110110010110100101101001011010011010111111000000000000
12:17:00:00:90:06:ac:e2:63:9f:c6:9a:36:d0:ae:8f:63:d8:f6:5a:5a:5a:6b:f0:00:
00010010000101110000000000000000100100000000011010101100111000100110001110011111110001101001101000110110110100001010111010001111011000111101100011110110010110100101101001011010011010111111000000000000
12:17:00:00:90:06:ac:e2:63:9f:f8:9a:36:d0:ae:8f:63:d8:f6:5a:5a:5a:6b:f0:00:
00010010000101110000000000000000100100000000011010101100111000100110001110011111111110001001101000110110110100001010111010001111011000111101100011110110010110100101101001011010011010111111000000000000
12:17:00:00:90:06:ac:e2:63:a0:2a:9a:36:d0:ae:8f:63:d8:f6:5a:5a:5a:6b:f0:00:
00010010000101110000000000000000100100000000011010101100111000100110001110100000001010101001101000110110110100001010111010001111011000111101100011110110010110100101101001011010011010111111000000000000
12:17:00:00:90:06:ac:e2:63:a0:5c:9a:36:d0:ae:8f:63:d8:f6:5a:5a:5a:6b:f0:00:
00010010000101110000000000000000100100000000011010101100111000100110001110100000010111001001101000110110110100001010111010001111011000111101100011110110010110100101101001011010011010111111000000000000
12:17:00:00:90:06:ac:e2:63:a0:7e:1a:36:d0:ae:8f:63:d8:f6:5a:5a:5a:6b:f0:00:
00010010000101110000000000000000100100000000011010101100111000100110001110100000011111100001101000110110110100001010111010001111011000111101100011110110010110100101101001011010011010111111000000000000
12:17:00:00:90:06:ac:e2:63:a0:b0:1a:36:d0:ae:8f:63:d8:f6:5a:5a:5a:6b:f0:00:
00010010000101110000000000000000100100000000011010101100111000100110001110100000101100000001101000110110110100001010111010001111011000111101100011110110010110100101101001011010011010111111000000000000
12:17:00:00:90:06:ac:e2:63:a0:e2:1a:36:d0:ae:8f:63:d8:f6:5a:5a:5a:6b:f0:00:
00010010000101110000000000000000100100000000011010101100111000100110001110100000111000100001101000110110110100001010111010001111011000111101100011110110010110100101101001011010011010111111000000000000
12:17:00:00:90:06:ac:e2:63:a0:f2:9a:36:d0:ae:8f:63:d8:f6:5a:5a:5a:6b:f0:00:
00010010000101110000000000000000100100000000011010101100111000100110001110100000111100101001101000110110110100001010111010001111011000111101100011110110010110100101101001011010011010111111000000000000
12:17:00:00:90:06:ac:e2:63:a1:35:5a:36:d0:ae:8f:63:d8:f6:5a:5a:5a:6b:f0:00:
00010010000101110000000000000000100100000000011010101100111000100110001110100001001101010101101000110110110100001010111010001111011000111101100011110110010110100101101001011010011010111111000000000000
12:17:00:00:90:06:ac:e2:63:a1:67:5a:36:d0:ae:8f:63:d8:f6:5a:5a:5a:6b:f0:00:
00010010000101110000000000000000100100000000011010101100111000100110001110100001011001110101101000110110110100001010111010001111011000111101100011110110010110100101101001011010011010111111000000000000
12:17:00:00:90:06:ac:e2:63:a1:99:5a:36:d0:ae:8f:63:d8:f6:5a:5a:5a:6b:f0:00:
00010010000101110000000000000000100100000000011010101100111000100110001110100001100110010101101000110110110100001010111010001111011000111101100011110110010110100101101001011010011010111111000000000000
12:17:00:00:90:06:ac:e2:63:a1:cb:5a:36:d0:ae:8f:63:d8:f6:5a:5a:5a:6b:f0:00:
00010010000101110000000000000000100100000000011010101100111000100110001110100001110010110101101000110110110100001010111010001111011000111101100011110110010110100101101001011010011010111111000000000000
12:17:00:00:90:06:ac:e2:63:a1:ec:9a:36:d0:ae:8f:63:d8:f6:5a:5a:5a:6b:f0:00:
00010010000101110000000000000000100100000000011010101100111000100110001110100001111011001001101000110110110100001010111010001111011000111101100011110110010110100101101001011010011010111111000000000000
12:17:00:00:90:06:ac:e2:63:a2:1e:9a:36:d0:ae:8f:63:d8:f6:5a:5a:5a:6b:f0:00:
00010010000101110000000000000000100100000000011010101100111000100110001110100010000111101001101000110110110100001010111010001111011000111101100011110110010110100101101001011010011010111111000000000000
12:17:00:00:90:06:ac:e2:63:a2:50:9a:36:d0:ae:8f:63:d8:f6:5a:5a:5a:6b:f0:00:
00010010000101110000000000000000100100000000011010101100111000100110001110100010010100001001101000110110110100001010111010001111011000111101100011110110010110100101101001011010011010111111000000000000
12:17:00:00:90:06:ac:e2:63:a2:82:9a:36:d0:ae:8f:63:d8:f6:5a:5a:5a:6b:f0:00:
00010010000101110000000000000000100100000000011010101100111000100110001110100010100000101001101000110110110100001010111010001111011000111101100011110110010110100101101001011010011010111111000000000000
12:17:00:00:90:06:ac:e2:63:a2:b4:9a:36:d0:ae:8f:63:d8:f6:5a:5a:5a:6b:f0:00:
00010010000101110000000000000000100100000000011010101100111000100110001110100010101101001001101000110110110100001010111010001111011000111101100011110110010110100101101001011010011010111111000000000000
12:17:00:00:90:06:ac:e2:63:a2:d6:1a:36:d0:ae:8f:63:d8:f6:5a:5a:5a:6b:f0:00:
00010010000101110000000000000000100100000000011010101100111000100110001110100010110101100001101000110110110100001010111010001111011000111101100011110110010110100101101001011010011010111111000000000000
12:17:00:00:90:06:ac:e2:63:a3:08:1a:36:d0:ae:8f:63:d8:f6:5a:5a:5a:6b:f0:00:
00010010000101110000000000000000100100000000011010101100111000100110001110100011000010000001101000110110110100001010111010001111011000111101100011110110010110100101101001011010011010111111000000000000
12:17:00:00:90:06:ac:e2:63:a3:29:5a:36:d0:ae:8f:63:d8:f6:5a:5a:5a:6b:f0:00:
00010010000101110000000000000000100100000000011010101100111000100110001110100011001010010101101000110110110100001010111010001111011000111101100011110110010110100101101001011010011010111111000000000000
12:17:00:00:90:06:ac:e2:63:a3:5b:5a:36:d0:ae:8f:63:d8:f6:5a:5a:5a:6b:f0:00:
00010010000101110000000000000000100100000000011010101100111000100110001110100011010110110101101000110110110100001010111010001111011000111101100011110110010110100101101001011010011010111111000000000000
12:17:00:00:90:06:ac:e2:63:a3:8d:5a:36:d0:ae:8f:63:d8:f6:5a:5a:5a:6b:f0:00:
00010010000101110000000000000000100100000000011010101100111000100110001110100011100011010101101000110110110100001010111010001111011000111101100011110110010110100101101001011010011010111111000000000000
12:17:00:00:90:06:ac:e2:63:a3:bf:5a:36:d0:ae:8f:63:d8:f6:5a:5a:5a:6b:f0:00:
00010010000101110000000000000000100100000000011010101100111000100110001110100011101111110101101000110110110100001010111010001111011000111101100011110110010110100101101001011010011010111111000000000000
12:17:00:00:90:06:ac:e2:63:a3:e0:9a:36:d0:ae:8f:63:d8:f6:5a:5a:5a:6b:f0:00:
00010010000101110000000000000000100100000000011010101100111000100110001110100011111000001001101000110110110100001010111010001111011000111101100011110110010110100101101001011010011010111111000000000000
12:17:00:00:90:06:ac:e2:63:a4:12:9a:36:d0:ae:8f:63:d8:f6:5a:5a:5a:6b:f0:00:
00010010000101110000000000000000100100000000011010101100111000100110001110100100000100101001101000110110110100001010111010001111011000111101100011110110010110100101101001011010011010111111000000000000
12:17:00:00:90:06:ac:e2:63:a4:44:9a:36:d0:ae:8f:63:d8:f6:5a:5a:5a:6b:f0:00:
00010010000101110000000000000000100100000000011010101100111000100110001110100100010001001001101000110110110100001010111010001111011000111101100011110110010110100101101001011010011010111111000000000000
12:17:00:00:90:06:ac:e2:63:a4:76:9a:36:d0:ae:8f:63:d8:f6:5a:5a:5a:6b:f0:00:
00010010000101110000000000000000100100000000011010101100111000100110001110100100011101101001101000110110110100001010111010001111011000111101100011110110010110100101101001011010011010111111000000000000
12:17:00:00:90:06:ac:e2:63:a4:98:1a:36:d0:ae:8f:63:d8:f6:5a:5a:5a:6b:f0:00:
00010010000101110000000000000000100100000000011010101100111000100110001110100100100110000001101000110110110100001010111010001111011000111101100011110110010110100101101001011010011010111111000000000000
12:17:00:00:90:06:ac:e2:63:a4:ca:1a:36:d0:ae:8f:63:d8:f6:5a:5a:5a:6b:f0:00:
00010010000101110000000000000000100100000000011010101100111000100110001110100100110010100001101000110110110100001010111010001111011000111101100011110110010110100101101001011010011010111111000000000000
12:17:00:00:90:06:ac:e2:63:a4:fc:1a:36:d0:ae:8f:63:d8:f6:5a:5a:5a:6b:f0:00:
00010010000101110000000000000000100100000000011010101100111000100110001110100100111111000001101000110110110100001010111010001111011000111101100011110110010110100101101001011010011010111111000000000000
12:17:00:00:90:06:ac:e2:63:a5:2e:1a:36:d0:ae:8f:63:d8:f6:5a:5a:5a:6b:f0:00:
00010010000101110000000000000000100100000000011010101100111000100110001110100101001011100001101000110110110100001010111010001111011000111101100011110110010110100101101001011010011010111111000000000000
12:17:00:00:90:06:ac:e2:63:a5:3e:9a:36:d0:ae:8f:63:d8:f6:5a:5a:5a:6b:f0:00:
00010010000101110000000000000000100100000000011010101100111000100110001110100101001111101001101000110110110100001010111010001111011000111101100011110110010110100101101001011010011010111111000000000000
12:17:00:00:90:06:ac:e2:63:a5:81:5a:36:d0:ae:8f:63:d8:f6:5a:5a:5a:6b:f0:00:
00010010000101110000000000000000100100000000011010101100111000100110001110100101100000010101101000110110110100001010111010001111011000111101100011110110010110100101101001011010011010111111000000000000
12:17:00:00:90:06:ac:e2:63:a5:b3:5a:36:d0:ae:8f:63:d8:f6:5a:5a:5a:6b:f0:00:
00010010000101110000000000000000100100000000011010101100111000100110001110100101101100110101101000110110110100001010111010001111011000111101100011110110010110100101101001011010011010111111000000000000
12:17:00:00:90:06:ac:e2:63:a5:d4:9a:36:d0:ae:8f:63:d8:f6:5a:5a:5a:6b:f0:00:
00010010000101110000000000000000100100000000011010101100111000100110001110100101110101001001101000110110110100001010111010001111011000111101100011110110010110100101101001011010011010111111000000000000
12:17:00:00:90:06:ac:e2:63:a6:17:5a:36:d0:ae:8f:63:d8:f6:5a:5a:5a:6b:f0:00:
00010010000101110000000000000000100100000000011010101100111000100110001110100110000101110101101000110110110100001010111010001111011000111101100011110110010110100101101001011010011010111111000000000000
12:17:00:00:90:06:ac:e2:63:a6:38:9a:36:d0:ae:8f:63:d8:f6:5a:5a:5a:6b:f0:00:
00010010000101110000000000000000100100000000011010101100111000100110001110100110001110001001101000110110110100001010111010001111011000111101100011110110010110100101101001011010011010111111000000000000
12:17:00:00:90:06:ac:e2:63:a6:6a:9a:36:d0:ae:8f:63:d8:f6:5a:5a:5a:6b:f0:00:
00010010000101110000000000000000100100000000011010101100111000100110001110100110011010101001101000110110110100001010111010001111011000111101100011110110010110100101101001011010011010111111000000000000
12:17:00:00:90:06:ac:e2:63:a6:9c:9a:36:d0:ae:8f:63:d8:f6:5a:5a:5a:6b:f0:00:
00010010000101110000000000000000100100000000011010101100111000100110001110100110100111001001101000110110110100001010111010001111011000111101100011110110010110100101101001011010011010111111000000000000
12:17:00:00:90:06:ac:e2:63:a6:ce:9a:36:d0:ae:8f:63:d8:f6:5a:5a:5a:6b:f0:00:
00010010000101110000000000000000100100000000011010101100111000100110001110100110110011101001101000110110110100001010111010001111011000111101100011110110010110100101101001011010011010111111000000000000
12:17:00:00:90:06:ac:e2:63:a7:00:9a:36:d0:ae:8f:63:d8:f6:5a:5a:5a:6b:f0:00:
00010010000101110000000000000000100100000000011010101100111000100110001110100111000000001001101000110110110100001010111010001111011000111101100011110110010110100101101001011010011010111111000000000000
12:17:00:00:90:06:ac:e2:63:a7:32:9a:36:d0:ae:8f:63:d8:f6:5a:5a:5a:6b:f0:00:
00010010000101110000000000000000100100000000011010101100111000100110001110100111001100101001101000110110110100001010111010001111011000111101100011110110010110100101101001011010011010111111000000000000
12:17:00:00:90:06:ac:e2:63:a7:64:9a:36:d0:ae:8f:63:d8:f6:5a:5a:5a:6b:f0:00:
00010010000101110000000000000000100100000000011010101100111000100110001110100111011001001001101000110110110100001010111010001111011000111101100011110110010110100101101001011010011010111111000000000000
12:17:00:00:90:06:ac:e2:63:a7:86:1a:36:d0:ae:8f:63:d8:f6:5a:5a:5a:6b:f0:00:
00010010000101110000000000000000100100000000011010101100111000100110001110100111100001100001101000110110110100001010111010001111011000111101100011110110010110100101101001011010011010111111000000000000
12:17:00:00:90:06:ac:e2:63:a7:b8:1a:36:d0:ae:8f:63:d8:f6:5a:5a:5a:6b:f0:00:
00010010000101110000000000000000100100000000011010101100111000100110001110100111101110000001101000110110110100001010111010001111011000111101100011110110010110100101101001011010011010111111000000000000
12:17:00:00:90:06:ac:e2:63:a7:ea:1a:36:d0:ae:8f:63:d8:f6:5a:5a:5a:6b:f0:00:
00010010000101110000000000000000100100000000011010101100111000100110001110100111111010100001101000110110110100001010111010001111011000111101100011110110010110100101101001011010011010111111000000000000
12:17:00:00:90:06:ac:e2:63:a8:0b:5a:36:d0:ae:8f:63:d8:f6:5a:5a:5a:6b:f0:00:
00010010000101110000000000000000100100000000011010101100111000100110001110101000000010110101101000110110110100001010111010001111011000111101100011110110010110100101101001011010011010111111000000000000
12:17:00:00:90:06:ac:e2:63:a8:3d:5a:36:d0:ae:8f:63:d8:f6:5a:5a:5a:6b:f0:00:
00010010000101110000000000000000100100000000011010101100111000100110001110101000001111010101101000110110110100001010111010001111011000111101100011110110010110100101101001011010011010111111000000000000
12:17:00:00:90:06:ac:e2:63:a8:6f:5a:36:d0:ae:8f:63:d8:f6:5a:5a:5a:6b:f0:00:
00010010000101110000000000000000100100000000011010101100111000100110001110101000011011110101101000110110110100001010111010001111011000111101100011110110010110100101101001011010011010111111000000000000
12:17:00:00:90:06:ac:e2:63:a8:90:9a:36:d0:ae:8f:63:d8:f6:5a:5a:5a:6b:f0:00:
00010010000101110000000000000000100100000000011010101100111000100110001110101000100100001001101000110110110100001010111010001111011000111101100011110110010110100101101001011010011010111111000000000000
12:17:00:00:90:06:ac:e2:63:a8:c2:9a:36:d0:ae:8f:63:d8:f6:5a:5a:5a:6b:f0:00:
00010010000101110000000000000000100100000000011010101100111000100110001110101000110000101001101000110110110100001010111010001111011000111101100011110110010110100101101001011010011010111111000000000000
12:17:00:00:90:06:ac:e2:63:a8:e4:1a:36:d0:ae:8f:63:d8:f6:5a:5a:5a:6b:f0:00:
00010010000101110000000000000000100100000000011010101100111000100110001110101000111001000001101000110110110100001010111010001111011000111101100011110110010110100101101001011010011010111111000000000000
12:17:00:00:90:06:ac:e2:63:a9:26:9a:36:d0:ae:8f:63:d8:f6:5a:5a:5a:6b:f0:00:
00010010000101110000000000000000100100000000011010101100111000100110001110101001001001101001101000110110110100001010111010001111011000111101100011110110010110100101101001011010011010111111000000000000
12:17:00:00:90:06:ac:e2:63:a9:48:1a:36:d0:ae:8f:63:d8:f6:5a:5a:5a:6b:f0:00:
00010010000101110000000000000000100100000000011010101100111000100110001110101001010010000001101000110110110100001010111010001111011000111101100011110110010110100101101001011010011010111111000000000000
12:17:00:00:90:06:ac:e2:63:a9:7a:1a:36:d0:ae:8f:63:d8:f6:5a:5a:5a:6b:f0:00:
00010010000101110000000000000000100100000000011010101100111000100110001110101001011110100001101000110110110100001010111010001111011000111101100011110110010110100101101001011010011010111111000000000000
12:17:00:00:90:06:ac:e2:63:a9:ac:1a:36:d0:ae:8f:63:d8:f6:5a:5a:5a:6b:f0:00:
00010010000101110000000000000000100100000000011010101100111000100110001110101001101011000001101000110110110100001010111010001111011000111101100011110110010110100101101001011010011010111111000000000000
12:17:00:00:90:06:ac:e2:63:a9:de:1a:36:d0:ae:8f:63:d8:f6:5a:5a:5a:6b:f0:00:
00010010000101110000000000000000100100000000011010101100111000100110001110101001110111100001101000110110110100001010111010001111011000111101100011110110010110100101101001011010011010111111000000000000
12:17:00:00:90:06:ac:e2:63:a9:ff:5a:36:d0:ae:8f:63:d8:f6:5a:5a:5a:6b:f0:00:
00010010000101110000000000000000100100000000011010101100111000100110001110101001111111110101101000110110110100001010111010001111011000111101100011110110010110100101101001011010011010111111000000000000
12:17:00:00:90:06:ac:e2:63:aa:20:9a:36:d0:ae:8f:63:d8:f6:5a:5a:5a:6b:f0:00:
00010010000101110000000000000000100100000000011010101100111000100110001110101010001000001001101000110110110100001010111010001111011000111101100011110110010110100101101001011010011010111111000000000000
12:17:00:00:90:06:ac:e2:63:aa:63:5a:36:d0:ae:8f:63:d8:f6:5a:5a:5a:6b:f0:00:
00010010000101110000000000000000100100000000011010101100111000100110001110101010011000110101101000110110110100001010111010001111011000111101100011110110010110100101101001011010011010111111000000000000
12:17:00:00:90:06:ac:e2:63:aa:95:5a:36:d0:ae:8f:63:d8:f6:5a:5a:5a:6b:f0:00:
00010010000101110000000000000000100100000000011010101100111000100110001110101010100101010101101000110110110100001010111010001111011000111101100011110110010110100101101001011010011010111111000000000000
12:17:00:00:90:06:ac:e2:63:aa:a6:1a:36:d0:ae:8f:63:d8:f6:5a:5a:5a:6b:f0:00:
00010010000101110000000000000000100100000000011010101100111000100110001110101010101001100001101000110110110100001010111010001111011000111101100011110110010110100101101001011010011010111111000000000000
